Wills’s Stuff
…
Artist_Count %>% 
  top_n(10)

## Selecting by n

## # A tibble: 117 x 2
## # Groups:   artists [117]
##    artists             n
##    <chr>           <int>
##  1 Post Malone         8
##  2 Drake               7
##  3 Ed Sheeran          7
##  4 XXXTENTACION        6
##  5 Calvin Harris       4
##  6 Clean Bandit        4
##  7 Imagine Dragons     4
##  8 Kendrick Lamar      4
##  9 Khalid              4
## 10 Maroon 5            4
## # ... with 107 more rows
…
Spotify_Big %>% 
  group_by(genre) %>% 
  summarize(avg_speechiness=mean(speechiness)) %>% 
  arrange(avg_speechiness)

## # A tibble: 27 x 2
##    genre      avg_speechiness
##    <chr>                <dbl>
##  1 A Capella           0.0424
##  2 Soundtrack          0.0439
##  3 Folk                0.0451
##  4 World               0.0458
##  5 Country             0.0490
##  6 Classical           0.0520
##  7 Rock                0.0537
##  8 Opera               0.0597
##  9 Blues               0.0618
## 10 Anime               0.0651
## # ... with 17 more rows
…
